{
    "questionGroup1":  [
                           {
                               "options":  [{"value":"WS-MAN (Web Services for Management)","isCorrect":true},{"value":"DCOM (Distributed Communications Objet Model)"},{"value":"WMI (Windows Management Instrumentation)"}],
                               "hint":  "",
                               "description":  "Choose one.",
                               "type":  "chooseOne",
                               "text":  "What is the communications protocol behind remote PowerShell?",

                               "explanation":  "\"Remote PowerShell\" or WinRM is based on the DMTF standard called WS-MAN that sets forth a common, industry standard way to manage remote systems."
                           },
                           {
                               "hint":  "",
                               "options":  [{"value":"Serialization","isCorrect":true},{"value":"Deserialization","isCorrect":true},{"value":"Encapsulation"},{"value":"Decapsulation"}],
                               "type":  "chooseMultiple",
                               "text":  "What are the two processes that happen to objects as they are passed over the network by WinRM?",

                               "explanation":  "When passing data from local to remote computers, it's necessary to change the data in a way to make it pass reliably over the network. One common way this is done is serializing information before passing it over the network and deserializing it when it was done. This is roughly similar to zipping a bunch of files before emailing them and then unzipping the files when they are received."
                           },
                           {
                               "hint":  "",
                               "description":  "Get a list of the top ten processes for virtual memory (VM) usage from two computers; Server01 and Server02. Place the code fragments where they should lie in the command.",
                               "type":  "arrangeCode",
                               "text":  "Arrange the code.",

                               "explanation":  "In this exercise, you needed to issue the Get-Process command on two remote computers.  The only way to do this in PowerShell is by using PowerShell remoting. Invoke-Command is the method that should be used when you need to run short command snippets on remote computers. In this instance, you ran Get-Process, sorted the output by the VM property in a descending order and only output the top 10.",
                               "code":  "{. Invoke-Command .} -Scriptblock { {. Get-Process .} | {. Sort-Object .} VM -Descending | Select-Object -First (7)} {. -ComputerName Server01,Server02 .}"
                           }
                       ]
}
