{
    "questionGroup1":  [
                           {
                               "hint":  "",
                               "options":  [{"value":"Endpoints","isCorrect":true},{"value":"Session configurations","isCorrect":true},{"value":"Session states"},{"value":"Terminators"}],
                               "type":  "chooseMultiple",
                               "text":  "Which two terms does PowerShell refer to as the difference states or spaces a session has that can possess different configurations.",

                               "explanation":  "Each computer has different endpoints or session configurations. Each session can have multiple endpoints that have distinctly separate configurations for each particular endpoint."
                           },
                           {
                               "options":  [{"value":"True","isCorrect":true},{"value":"False"}],
                               "hint":  "",
                               "description":  "Choose one.",
                               "type":  "chooseOne",
                               "text":  "A single computer can have multiple endpoints.",

                               "explanation":  "A single computer can have any number of endpoints all with varying levels of restrictions."
                           },
                           {
                               "hint":  "",
                               "description":  "Create a Remoting endpoint named TestPoint on your local computer. Configure the endpoint so that the SmbShare module is loaded automatically, but so that only the Get-SmbShare cmdlet is visible from that module. Place the code fragments where they should lie in the command.",
                               "type":  "arrangeCode",
                               "text":  "Arrange the code.",

                               "explanation":  "To create an endpoint/session configuration you must first create a session configuration file. This file contains things like which modules and commands are available or perhaps which PowerShell versions are allowed to connect to it.  This is done with New-PSSessionConfigurationFile. Once the file is created, you then must use Register-PSSessionConfiguration and point to the file you created earlier to actually apply the configuration.",
                               "code":  "{. New-PSSessionConfigurationFile .} -Path .\\SMBShareEndpoint.pssc -ModulesToImport {. SMBShare .} -SessionType {. RestrictedRemoteServer .} -CompanyName \"My Company\" -Author \"Jane Admin\" -Description \"restricted SMBShare endpoint\" -PowerShellVersion '3.0' \n\n {. Register-PSSessionConfiguration .} -Path .\\SMBShareEndpoint.pssc {. -Name TestPoint .}"
                           }
                       ]
}
