{
    "questionGroup1":  [
                           {
                               "options":  [{"value":"False","isCorrect":true},{"value":"True"}],
                               "hint":  "",
                               "description":  "Choose one.",
                               "type":  "chooseOne",
                               "text":  "Toolmaking is the very first concept you should learn in PowerShell.",

                               "explanation":  "Toolmaking is not the first concept.  Toolmaking involves taking the basics of PowerShell and building upon that.  Toolmaking concepts include having the building blocks already to build robust tools. In order to build tools with advanced functionality you must have the basics in place first."
                           },
                           {
                               "hint":  "",
                               "options":  [{"value":"Pick a task you're struggling with and automate it.","isCorrect":true},{"value":"Dive into the help system and pick out interesting cmdlets","isCorrect":true},{"value":"Attempt to manage a particular product of yours such as Active Directory, Exchange, IIS, etc with PowerShell.","isCorrect":true},{"value":"Reach out to the PowerShell community and ask for help.","isCorrect":true},{"value":"Stick with VBscript"}],
                               "type":  "chooseMultiple",
                               "text":  "List the ways in which you can really learning PowerShell?",

                               "explanation":  "Learn PowerShell is any way that works for you. Some learn better just by doing. Some learn by reading books like this one while others learn in a classroom environment. One of the best ways to learn is to start with a real-world problem and automate it.  This will give you that rush of dopamine when you get the satisfaction of really accomplishing something.  By all means, forget VBscript!"
                           }
                       ]
}
