{
    "questionGroup1":  [
                           {
                               "hint":  "",
                               "description":  "Place the correct parameter/argument block where it needs to be to find the 100 most recent entries from the Application event log.",
                               "type":  "arrangeCode",
                               "text":  "Arrange the code.",
                               "explanation":  "The Get-EventLog command uses the LogName parameter to specify the event log to query. The LogName parameter (like most other parameters) has a parameter argument. In this exercise, you'll need to place Application as this this argument. Get-EventLog also has a Newest parameter that allows the user to find the most recent X number of events. This is where you'll need to place the number 100.",
                               "code":  "Get-EventLog {. -LogName .} Application -Newest {. 100 .}"
                           },
                           {
                               "options":  [{"value":"New-Alias d Get-ChildItem","isCorrect":true},{"value":"New-Alias -Name d Get-Item"},{"value":"Get-Alias -Name d | New-Alias -Value Get-ChildItem"}],
                               "hint":  "",
                               "description":  "Choose one.",
                               "type":  "chooseOne",
                               "text":  "How would you create an alias 'd' to get a directory listing?",
                               "explanation":  "The New-Alias command is the way to create any alias.  The New-Alias command has a Name parameter that has a position of 0. This means you can exclude typing \"-Name\" and just type 'd' to specify the alias of 'd'. Next, it also has a parameter of Value which has a position of 1 which means you can just put \"Get-ChildItem\" instead of \"-Value Get-ChildItem\""
                           },
                           {
                               "options":  [{"value":"True","isCorrect":true},{"value":"False"}],
                               "hint":  "",
                               "description":  "Choose one.",
                               "type":  "chooseOne",
                               "text":  "The asterisk (*) is a near-universal wildcard character in PowerShell.",
                               "explanation":  "You can use the asterisk as a wildcard character in many different commands like Get-Service, Get-Childitem, Get-EventLog and so on."
                           },
                           {
                               "hint":  "",
                               "description":  "Place the code snippets in the appropriate place to show a method to discover how to find all Windows Firewall rules",
                               "type":  "arrangeCode",
                               "text":  "Arrange the code.",
                               "explanation":  "You're searching for a method to get something regarding the Windows Firewall. A good place to start would be to search for all commands that use \"Get\" as the verb and have firewall somewhere in the name.  This might lead you to noticing the Get-NetFirewallRule command which you can then get help on. Finally, you can run the Get-NetFirewallRule command to get all the Windows Firewall rules.",
                               "code":  "Get-Command -Verb Get -Noun {. *firewall* .}\nhelp {. Get-NetFirewallRule .}\n{. Get-NetFirewallRule .}"
                           }
                       ]
}
