{
    "questionGroup1":  [
                           {
                               "options":  [{"value":"Pipeline parameter binding","isCorrect":true},{"value":"Output binding"},{"value":"IO Attachment"},{"value":"Parameter transfer"}],
                               "hint":  "",
                               "description":  "Choose one.",
                               "type":  "chooseOne",
                               "text":  "What is the activity called that allows you to pass the output of one command to the input of another command?",

                               "explanation":  "To be specific, the act that allows you to pass the output of one command to the input of another is called parameter binding. This is what helps PowerShell ensure the output of one command is compatible with the input of another."
                           },
                           {
                               "hint":  "",
                               "options":  [{"value":"By property name","isCorrect":true},{"value":"By value","isCorrect":true},{"value":"By parameter argument"},{"value":"By command syntax"}],
                               "type":  "chooseMultiple",
                               "text":  "What are two ways that the PowerShell pipeline binds two commands together?",

                               "explanation":  "There are two kinds of ways PowerShell can bind two commands together; ByPropertyName or ByValue. ByValue simply takes an entire object and all properties and binds this to the input of another command if the object type of the output command matches the object type of the input command. It can also get more granular and only match parameters on a single property. The objects don't have the necessarily be of the same type but if the object property name of the output command is the same name as the parameter of the input command, it will bind."
                           },
                           {
                               "options":  [{"value":"False","isCorrect":true},{"value":"True"}],
                               "hint":  "",
                               "description":  "Choose one.",
                               "type":  "chooseOne",
                               "text":  "Get-ADComputer -Filter * | Get-Service will return the list of services of multiple computers. will return the list of services of multiple computers.",

                               "explanation":  "This will not work because Get-Service only allows pipeline input by value which means the object being passed to it must be of type 'ServiceController' which Get-ADcomputer does not produce. Property name binding won't either either because Get-Service only accepts pipeline input by property name on the ComputerName parameter which Get-ADComputer's default output does not produce."
                           },
                           {
                               "hint":  "",
                               "options":  [{"value":"Get-Hotfix does not accept any parameters by value.","isCorrect":true},{"value":"Get-AdComputer does not output a ComputerName property name.","isCorrect":true},{"value":"Get-AdComputer outputs a wrong object type"},{"value":"Get-Hotfix does not accept any pipeline input."}],
                               "type":  "chooseMultiple",
                               "text":  "This command will fail to work (Get-AdComputer -Filter * | Get-HotFix). Why? Choose two.",

                               "explanation":  "Similar to the last exercise, Get-Hotfix has no parameters that accept the kind of output that Get-ADComputer produces."
                           },
                           {
                               "options":  [{"value":"Get-AdComputer","isCorrect":true},{"value":"Get-Hotfix"},{"value":"Select-Object"}],
                               "hint":  "",
                               "description":  "Choose one.",
                               "type":  "chooseOne",
                               "text":  "Which cmdlet will execute first in this command?",

                               "explanation":  "Just like in math class, PowerShell respects order of operation. Any command wrapped in parentheses will execute first."
                           }
                       ]
}
