{
  "questionGroup1":
  [
    {
      "index": 1,
      "type": "chooseMultiple",
      "text": "This book describes new Java 8 features. Which of these features were already present prior to Java 8?",
      "description": "Select all that apply",
      "options":
      [
        { "value": "CompletableFuture"},
        { "value": "Diamond operator (<>)", "isCorrect": true},
        { "value": "Underscores in numeric literals", "isCorrect": true},
        { "value": "Date/Time API (java.util.time package)"},
        { "value": "Executor", "isCorrect": true},
        { "value": "Elvis operator (?:)"},
        { "value": "Strings as switch/case options", "isCorrect": true}
      ],
      "explanation": "The Executor interface was introduced together with Future in Java 5 as part of the java.util.concurrent package for asynchronous operations. The diamond operator, underscores in numeric literals (e.g., 1_234_567), and strings as switch/case options were all introduced in Java 7. The CompletableFuture class and the new Date/Time API were discussed in chapters 11 and 12, respectively. The Elvis operator doesn't exist in Java (but it does in Spring Expression Language).",
      "hint": "Try to remember which of these features were not discussed in the book."
    }
  ],
  "questionGroup2":
  [
    {
      "index": 1,
      "type": "chooseOne",
      "text": "Section 16.2.1 describes a way to simplify map definition that is part of a Java proposal for improvement. This type of syntactic sugar already exists in Scala.",
      "description": "Choose one",
      "options":
      [
        { "value": "True", "isCorrect": true},
        { "value": "False"}
      ],
      "hint": "A little flashback into chapter 15...",
      "explanation": "It's described at the beginning of section 15.1.2. The only difference is Map and () instead of # and {}, respectively."
    },
    {
      "index": 2,
      "type": "chooseOne",
      "text": "At runtime, the JVM has no information on the actual generic type of a generic class instance (e.g., ArrayList).",
      "description": "Choose one",
      "options":
      [
        { "value": "True", "isCorrect": true},
        { "value": "False"}
      ],
      "hint": "This hasn't changed since the introduction of Generics in Java 5...",
      "explanation": "It's unfortunately true. Reified Generics, as they exist in C#, would solve this issue, including for primitive types (e.g., ArrayList<int>)."
    },
    {
      "index": 3,
      "type": "chooseOne",
      "text": "The final keyword guarantees immutability of any primitive value or object.",
      "description": "Choose one",
      "options":
      [
        { "value": "True"},
        { "value": "False", "isCorrect": true}
      ],
      "hint": "What does the final keyword forbid exactly?",
      "explanation": "It's true for a primitive value but not for an object, unless it's immutable by design (e.g., String and primitive type wrappers). The final keyword doesn't forbid invoking manipulation methods on objects (e.g., ArrayList.set() or Date.setTime()). Scala provides a better protection against such a false sense of security with its val keyword as described in section 15.1.2 (and mentioned in section 16.2.6)."
    }
  ]
}
