{
  "parts":
  [
    {
      "title": "Part I",
      "index": "1",
      "path": "questions.php?book=SpringInAction&part=1",
      "chapters":
      [
        {
          "title": "Chapter 1",
          "index": "1",
          "path": "questions.php?book=SpringInAction&chapter=1",
          "sections":
          [
            {
              "title": "Section 1.1",
              "index": "1",
              "path": "questions.php?book=SpringInAction&chapter=1#ch01lev01sec00",
              "subSections": []
            }
          ]
        },
        {
          "title": "Chapter 2",
          "index": "2",
          "path": "questions.php?book=SpringInAction&chapter=2",
          "sections":
          [
            {
              "title": "Section 2.1",
              "index": "1",
              "path": "questions.php?book=SpringInAction&chapter=2#ch02lev01sec00",
              "subSections": []
            },
            {
              "title": "Section 2.2",
              "index": "2",
              "path": "questions.php?book=SpringInAction&chapter=2#ch02lev02sec00",
              "subSections": []
            },
            {
              "title": "Section 2.3",
              "index": "3",
              "path": "questions.php?book=SpringInAction&chapter=2#ch02lev03sec00",
              "subSections": []
            },
            {
              "title": "Section 2.4",
              "index": "4",
              "path": "questions.php?book=SpringInAction&chapter=2#ch02lev04sec00",
              "subSections": []
            },
            {
              "title": "Section 2.5",
              "index": "5",
              "path": "questions.php?book=SpringInAction&chapter=2#ch02lev05sec00",
              "subSections": []
            },
            {
              "title": "Section 2.6",
              "index": "6",
              "path": "questions.php?book=SpringInAction&chapter=2#ch02lev06sec00",
              "subSections": []
            }
          ]
        },
        {
          "title": "Chapter 3",
          "index": "3",
          "path": "questions.php?book=SpringInAction&chapter=3",
          "sections":
          [
            {
              "title": "Section 3.1",
              "index": "1",
              "path": "questions.php?book=SpringInAction&chapter=3#ch03lev01sec00",
              "subSections": []
            }
          ]
        },
        {
          "title": "Chapter 4",
          "index": "4",
          "path": "questions.php?book=SpringInAction&chapter=4",
          "sections":
          [
            {
              "title": "Section 4.1",
              "index": "1",
              "path": "questions.php?book=SpringInAction&chapter=4#ch04lev01sec00",
              "subSections": []
            }
          ]
        }
      ]
    },
    {
      "title": "Part II",
      "index": "2",
      "path": "questions.php?book=SpringInAction&part=2",
      "chapters":
      [
        {
          "title": "Chapter 5",
          "index": "5",
          "path": "questions.php?book=SpringInAction&chapter=5",
          "sections":
          [
            {
              "title": "Section 5.1",
              "index": "1",
              "path": "questions.php?book=SpringInAction&chapter=1#ch05lev01sec00",
              "subSections": []
            }
          ]
        },
        {
          "title": "Chapter 6",
          "index": "6",
          "path": "questions.php?book=SpringInAction&chapter=6",
          "sections":
          [
            {
              "title": "Section 6.1",
              "index": "1",
              "path": "questions.php?book=SpringInAction&chapter=1#ch06lev01sec00",
              "subSections": []
            }
          ]
        },
        {
          "title": "Chapter 7",
          "index": "7",
          "path": "questions.php?book=SpringInAction&chapter=7",
          "sections":
          [
            {
              "title": "Section 7.1",
              "index": "1",
              "path": "questions.php?book=SpringInAction&chapter=1#ch07lev01sec00",
              "subSections": []
            }
          ]
        },
        {
          "title": "Chapter 8",
          "index": "8",
          "path": "questions.php?book=SpringInAction&chapter=8",
          "sections":
          [
            {
              "title": "Section 8.1",
              "index": "1",
              "path": "questions.php?book=SpringInAction&chapter=1#ch08lev01sec00",
              "subSections": []
            }
          ]
        },
        {
          "title": "Chapter 9",
          "index": "9",
          "path": "questions.php?book=SpringInAction&chapter=9",
          "sections":
          [
            {
              "title": "Section 9.1",
              "index": "1",
              "path": "questions.php?book=SpringInAction&chapter=1#ch09lev01sec00",
              "subSections": []
            }
          ]
        }
      ]
    },
    {
      "title": "Part III",
      "index": "3",
      "path": "questions.php?book=SpringInAction&part=3",
      "chapters":
      [
        {
          "title": "Chapter 10",
          "index": "10",
          "path": "questions.php?book=SpringInAction&chapter=10",
          "sections":
          [
            {
              "title": "Section 10.1",
              "index": "1",
              "path": "questions.php?book=SpringInAction&chapter=1#ch010lev01sec00",
              "subSections": []
            }
          ]
        }
      ]
    },
    {
      "title": "Part IV",
      "index": "4",
      "path": "questions.php?book=SpringInAction&part=3",
      "chapters":
      [
      ]
    }
  ]
}

