<?xml version="1.0" encoding="UTF-8" standalone="no"?>
<svg width="11px" height="12px" viewBox="0 0 11 12" version="1.1" xmlns="http://www.w3.org/2000/svg" xmlns:xlink="http://www.w3.org/1999/xlink" xmlns:sketch="http://www.bohemiancoding.com/sketch/ns">
    <!-- Generator: Sketch 3.2.2 (9983) - http://www.bohemiancoding.com/sketch -->
    <title>i-arrow-down</title>
    <desc>Created with Sketch.</desc>
    <defs></defs>
    <g id="Icons" stroke="none" stroke-width="1" fill="none" fill-rule="evenodd" sketch:type="MSPage">
        <g id="Artboard-1" sketch:type="MSArtboardGroup" transform="translate(-170.000000, -378.000000)" fill="#000000">
            <path d="M175.489818,385.434961 L175.489818,378.357143 L173.310182,378.357143 L173.310182,385.434961 L170.542545,382.668416 L169,384.210961 L174.398909,389.60987 L179.8,384.210961 L178.257455,382.668416 L175.489818,385.434961 Z" id="i-arrow-down" sketch:type="MSShapeGroup" transform="translate(175.000000, 384.357143) scale(1, -1) rotate(-180.000000) translate(-175.000000, -384.357143) "></path>
        </g>
    </g>
</svg>