<?xml version="1.0" encoding="UTF-8" standalone="no"?>
<svg width="9px" height="10px" viewBox="0 0 9 10" version="1.1" xmlns="http://www.w3.org/2000/svg" xmlns:xlink="http://www.w3.org/1999/xlink" xmlns:sketch="http://www.bohemiancoding.com/sketch/ns">
    <!-- Generator: Sketch 3.2.2 (9983) - http://www.bohemiancoding.com/sketch -->
    <title>i-play-triangle</title>
    <desc>Created with Sketch.</desc>
    <defs></defs>
    <g id="Icons" stroke="none" stroke-width="1" fill="none" fill-rule="evenodd" sketch:type="MSPage">
        <g id="Artboard-1" sketch:type="MSArtboardGroup" transform="translate(-83.000000, -56.000000)" fill="#000000">
            <polygon id="i-play-triangle" sketch:type="MSShapeGroup" transform="translate(87.500000, 61.000000) rotate(-270.000000) translate(-87.500000, -61.000000) " points="87.5 57 92 65 83 65 "></polygon>
        </g>
    </g>
</svg>