{
  "parts":
  [
    {
      "title": "Part I",
      "index": "1",
      "path": "questions.php?book=Powershell&part=1",
      "chapters":
      [
        {
          "title": "Chapter 1",
          "index": "1",
          "path": "questions.php?book=Powershell&chapter=1",
          "sections":
          [
            {
              "title": "Section 1.1",
              "index": "1",
              "path": "questions.php?book=Powershell&chapter=1",
              "subSections": []
            }
          ]
        },
        {
          "title": "Chapter 2",
          "index": "2",
          "path": "questions.php?book=Powershell&chapter=2",
          "sections":
          [
            {
              "title": "Section 2.1",
              "index": "1",
              "path": "questions.php?book=Powershell&chapter=2",
              "subSections": []
            }
          ]
        },
        {
          "title": "Chapter 3",
          "index": "3",
          "path": "questions.php?book=Powershell&chapter=3",
          "sections":
          [
            {
              "title": "Section 3.1",
              "index": "1",
              "path": "questions.php?book=Powershell&chapter=3",
              "subSections": []
            }
          ]
        },{
          "title": "Chapter 4",
          "index": "4",
          "path": "questions.php?book=Powershell&chapter=4",
          "sections":
          [
            {
              "title": "Section 4.1",
              "index": "1",
              "path": "questions.php?book=Powershell&chapter=4",
              "subSections": []
            }
          ]
        },{
          "title": "Chapter 5",
          "index": "2",
          "path": "questions.php?book=Powershell&chapter=5",
          "sections":
          [
            {
              "title": "Section 5.1",
              "index": "1",
              "path": "questions.php?book=Powershell&chapter=5",
              "subSections": []
            }
          ]
        },{
          "title": "Chapter 6",
          "index": "6",
          "path": "questions.php?book=Powershell&chapter=6",
          "sections":
          [
            {
              "title": "Section 6.1",
              "index": "1",
              "path": "questions.php?book=Powershell&chapter=6",
              "subSections": []
            }
          ]
        },{
          "title": "Chapter 7",
          "index": "7",
          "path": "questions.php?book=Powershell&chapter=7",
          "sections":
          [
            {
              "title": "Section 7.1",
              "index": "1",
              "path": "questions.php?book=Powershell&chapter=7",
              "subSections": []
            }
          ]
        },{
          "title": "Chapter 8",
          "index": "8",
          "path": "questions.php?book=Powershell&chapter=8",
          "sections":
          [
            {
              "title": "Section 8.1",
              "index": "1",
              "path": "questions.php?book=Powershell&chapter=8",
              "subSections": []
            }
          ]
        },{
          "title": "Chapter 9",
          "index": "9",
          "path": "questions.php?book=Powershell&chapter=9",
          "sections":
          [
            {
              "title": "Section 9.1",
              "index": "1",
              "path": "questions.php?book=Powershell&chapter=9",
              "subSections": []
            }
          ]
        },{
          "title": "Chapter 10",
          "index": "10",
          "path": "questions.php?book=Powershell&chapter=10",
          "sections":
          [
            {
              "title": "Section 10.1",
              "index": "1",
              "path": "questions.php?book=Powershell&chapter=10",
              "subSections": []
            }
          ]
        },{
          "title": "Chapter 11",
          "index": "11",
          "path": "questions.php?book=Powershell&chapter=11",
          "sections":
          [
            {
              "title": "Section 11.1",
              "index": "1",
              "path": "questions.php?book=Powershell&chapter=11",
              "subSections": []
            }
          ]
        },{
          "title": "Chapter 12",
          "index": "12",
          "path": "questions.php?book=Powershell&chapter=12",
          "sections":
          [
            {
              "title": "Section 12.1",
              "index": "1",
              "path": "questions.php?book=Powershell&chapter=12",
              "subSections": []
            }
          ]
        },{
          "title": "Chapter 13",
          "index": "13",
          "path": "questions.php?book=Powershell&chapter=13",
          "sections":
          [
            {
              "title": "Section 13.1",
              "index": "1",
              "path": "questions.php?book=Powershell&chapter=13",
              "subSections": []
            }
          ]
        },{
          "title": "Chapter 14",
          "index": "14",
          "path": "questions.php?book=Powershell&chapter=14",
          "sections":
          [
            {
              "title": "Section 14.1",
              "index": "1",
              "path": "questions.php?book=Powershell&chapter=14",
              "subSections": []
            }
          ]
        },{
          "title": "Chapter 15",
          "index": "15",
          "path": "questions.php?book=Powershell&chapter=15",
          "sections":
          [
            {
              "title": "Section 15.1",
              "index": "1",
              "path": "questions.php?book=Powershell&chapter=15",
              "subSections": []
            }
          ]
        },{
          "title": "Chapter 16",
          "index": "16",
          "path": "questions.php?book=Powershell&chapter=16",
          "sections":
          [
            {
              "title": "Section 16.1",
              "index": "1",
              "path": "questions.php?book=Powershell&chapter=16",
              "subSections": []
            }
          ]
        },{
          "title": "Chapter 17",
          "index": "17",
          "path": "questions.php?book=Powershell&chapter=17",
          "sections":
          [
            {
              "title": "Section 17.1",
              "index": "1",
              "path": "questions.php?book=Powershell&chapter=17",
              "subSections": []
            }
          ]
        },{
          "title": "Chapter 18",
          "index": "18",
          "path": "questions.php?book=Powershell&chapter=18",
          "sections":
          [
            {
              "title": "Section 18.1",
              "index": "1",
              "path": "questions.php?book=Powershell&chapter=18",
              "subSections": []
            }
          ]
        },{
          "title": "Chapter 19",
          "index": "19",
          "path": "questions.php?book=Powershell&chapter=19",
          "sections":
          [
            {
              "title": "Section 19.1",
              "index": "1",
              "path": "questions.php?book=Powershell&chapter=19",
              "subSections": []
            }
          ]
        },{
          "title": "Chapter 20",
          "index": "20",
          "path": "questions.php?book=Powershell&chapter=20",
          "sections":
          [
            {
              "title": "Section 20.1",
              "index": "1",
              "path": "questions.php?book=Powershell&chapter=20",
              "subSections": []
            }
          ]
        },{
          "title": "Chapter 21",
          "index": "21",
          "path": "questions.php?book=Powershell&chapter=21",
          "sections":
          [
            {
              "title": "Section 21.1",
              "index": "1",
              "path": "questions.php?book=Powershell&chapter=21",
              "subSections": []
            }
          ]
        },{
          "title": "Chapter 22",
          "index": "22",
          "path": "questions.php?book=Powershell&chapter=22",
          "sections":
          [
            {
              "title": "Section 22.1",
              "index": "1",
              "path": "questions.php?book=Powershell&chapter=22",
              "subSections": []
            }
          ]
        },{
          "title": "Chapter 23",
          "index": "23",
          "path": "questions.php?book=Powershell&chapter=23",
          "sections":
          [
            {
              "title": "Section 23.1",
              "index": "1",
              "path": "questions.php?book=Powershell&chapter=23",
              "subSections": []
            }
          ]
        },{
          "title": "Chapter 24",
          "index": "24",
          "path": "questions.php?book=Powershell&chapter=24",
          "sections":
          [
            {
              "title": "Section 24.1",
              "index": "1",
              "path": "questions.php?book=Powershell&chapter=24",
              "subSections": []
            }
          ]
        },{
          "title": "Chapter 25",
          "index": "25",
          "path": "questions.php?book=Powershell&chapter=25",
          "sections":
          [
            {
              "title": "Section 25.1",
              "index": "1",
              "path": "questions.php?book=Powershell&chapter=25",
              "subSections": []
            }
          ]
        },{
          "title": "Chapter 26",
          "index": "26",
          "path": "questions.php?book=Powershell&chapter=26",
          "sections":
          [
            {
              "title": "Section 26.1",
              "index": "1",
              "path": "questions.php?book=Powershell&chapter=26",
              "subSections": []
            }
          ]
        },{
          "title": "Chapter 27",
          "index": "27",
          "path": "questions.php?book=Powershell&chapter=27",
          "sections":
          [
            {
              "title": "Section 27.1",
              "index": "1",
              "path": "questions.php?book=Powershell&chapter=27",
              "subSections": []
            }
          ]
        }
      ]
    }
  ]
}
