{
    "questionGroup1":  [
                           {
                               "options":  [{"value":"Use Profiles","isCorrect":true},{"value":"Use PSPolicies"},{"value":"Use Startup Items"}],
                               "hint":  "",
                               "description":  "Choose one.",
                               "type":  "chooseOne",
                               "text":  "What's a good way to import common modules, define functions or set variables every time you launch PowerShell?",

                               "explanation":  "A profile is a simple PS1 script that's placed in a specific location that's executed every time a console is started. It's a great place to import common modules you might use often, put in function declarations or set variables. It's a great place to put whatever you might type in each PowerShell session anyway."
                           },
                           {
                               "options":  [{"value":"False","isCorrect":true},{"value":"True"}],
                               "hint":  "",
                               "description":  "Choose one.",
                               "type":  "chooseOne",
                               "text":  "Every user has a default profile already setup at first launch.",

                               "explanation":  "There are no profiles setup by default. You must create one manually for each user. By default, the profile is located in C:\\Users\\\u0026lt;user\u0026gt;\\Documents\\WindowsPowerShell\\profile.ps1.  You will need to create the WIndowsPowerShell folder and the PS1 file to create a profile."
                           },
                           {
                               "hint":  "",
                               "description":  "Output the word 'two' only in this string 'one,two,three,four,five' using the -split operator. Place the code fragments where they should lie in the command.",
                               "type":  "arrangeCode",
                               "text":  "Arrange the code.",

                               "explanation":  "To split a string on a delimiter you can use the -split operator.  This operator splits a string on a delimiter to a collection of strings. In this exercise, one string of 'one,two,three,four,five' will turn into five strings of 'one', 'two', 'three', 'four', 'five.  Once the collection is built you can then reference particular places in that string by using square brackets at the end. The collection places or indexes always start at 0 so the second place will always be 1 which contains the string 'two'.",
                               "code":  "{. ( .} 'one,two,three,four,five' {. -split .} { .','. } {. ) .} [ {. 1 .} ]"
                           },
                           {
                               "options":  [{"value":"'this' -like '*his*'","isCorrect":true},{"value":"'this' -contains '*his*'"},{"value":"'his' -in 'this'"}],
                               "hint":  "",
                               "description":  "Choose one.",
                               "type":  "chooseOne",
                               "text":  "What's one way to find if the string 'his' is in the string 'this'?",

                               "explanation":  "The only way to find 'his' in 'this' is to use the like operator here. -contains and -in find objects in collections; not strings."
                           }
                       ]
}
