{
  "questionGroup1":
  [
    {
      "index": 1,
      "type": "giveAnswer",
      "text": "The Spring reference manual mentions four ways of controlling a bean's lifecycle behavior before the container is destroyed. Three of them have been alluded to in this and previous chapters, and the fourth uses the Java javax.annotation.PreDestroy annotation.\n\nGiven a class named AClass that has a shutdown method that should be called before the container is destroyed, finish each code snippet to satisfy that requirement.",
      "description": "Give an answer to fill in the blank",
      "code": "// Annotate the aBean's declaration in JavaConfig\n\n_______________________________\npublic AClass aBean() {...}",
      "correctAnswer": "@Bean(destroyMethod=\"shutdown\")",
      "hint": "See the exmaple about the Datasource"
    },
    {
      "index": 2,
      "type": "arrangeCode",
      "description": "Drag the fragments to finish the code",
      "text": "Spring supports the CDI Java annotations for the bean lifecycle; use the annotation below to run the shutdown method  before the container is destroyed.",      "code": "import javax.annotation. {.PreDestroy.}\n\n public class AClass() {\n  {.@PreDestroy.}\n  public void {.shutdown.} () {...}\n}",
     "explanation": "Spring supports the javax.annotation.PreDestroy and javax.annotation.PostConstruct as part of a Spring bean's lifecycle.",
      "hint": "See the reference manual or Java documentation for Common Annotations 1.0"
    },
    {
      "index": 3,
      "type": "giveAnswer",
      "description": "Give an answer to fill in the blank",
      "text": "Finish the XML configurition such that the shutdown method of AClass is run before the container is destroyed.",
      "code": "<bean id=\"aBean\" class=\"com.abc.AClass\" _________________________ />",
      "correctAnswer": "destroy-method=\"shutdown\"",
      "hint": "See Chapter 1"
    },
    {
      "index": 4,
      "type": "arrangeCode",
      "description": "Drag the fragments to finish the code",
      "text": "Implement the Spring interface that provides a lifecycle callback to call shutdown before the container is destroyed.",
      "code": "public class AClass implements {.DisposableBean.} {\n  public void shutdown() { ... }\n  public void {.destroy.} () {\n    shutdown()\n  }\n}",
      "hint": "See Chapter 1"
    }
  ],
  "questionGroup2":
  [
    {
      "type": "matchItemsToDescription",
      "description": "Drag the description to the item",
      "text": "Match the description to the item.",
      "options":
      [
        { "value": "Indicates that a @Component or @Bean is eligible for registration when its profile is active."},
        { "value": "Lets you specify which profile(s) should be active when a test is run."},
        { "value": "Applied to @Bean methods to create beans if the prescribed condition is true."},
        { "value": "Indicates the default value expression for a field, or method/constructor parameter."},
        { "value": "Marks a bean as the primary bean to be selected in case of autowiring ambiguity."},
        { "value": "Specifies which bean you want to be injected."}
      ],
      "descriptions":
      [
        { "value": "@Qualifier", "matchingIndex": 5},
        { "value": "@Conditional", "matchingIndex": 2},
        { "value": "@Primary", "matchingIndex": 4},
        { "value": "@ActiveProfiles", "matchingIndex": 1},
        { "value": "@Value", "matchingIndex": 3},
        { "value": "@Profile", "matchingIndex": 0}
      ]
    }
  ]
} 
