{
  "questionGroup1":
  [
    {
        "index": 1,
        "type": "chooseOne",
        "text": "A WebApplictionInitializer can load servlets, filters, and listeners on Servlet 2.5+ containers.",
        "description": "Choose one",
        "options":
        [
            { "value": "True"},
            { "value": "False", "isCorrect": true}
        ],
        "explanation":"The WebApplicationInitializer can load servlets, filters, and listeners, but it requires a Servlet 3.0+ container.",
        "hint": "The loading of the WebApplicationInitializer has to be done by a ServletContainerInitializer."
    },
    {
        "index": 2,
        "type": "chooseMultiple",
        "description": "Choose all that apply",
        "text": "Given this web.xml what will happen when the application is deployed?",
        "code": "<web-app>\n  <listener>\n    <listener-class>org.springframework.web.context.ContextLoaderListener</listener-class>\n  </listener>\n\n  <servlet>\n    <servlet-name>dispatcher</servlet-name>\n    <servlet-class>org.springframework.web.servlet.DispatcherServlet</servlet-class>\n  </servlet>\n\n   <servlet-mapping>\n    <servlet-name>dispatcher</servlet-name>\n    <url-pattern>/</url-pattern>\n  </servlet-mapping>\n</web-app>",
        "options":
        [
            { "value": "The ContextLoaderListener will attempt to load beans from /WEB-INF/applicationContext.xml into the ApplicationContext.", "isCorrect": true},
            { "value": "The deployment will succeed if /WEB-INF/applicationContext.xml and /WEB-INF/dispatcher-servlet.xml exist.", "isCorrect": true},
            { "value": "The ContextLoaderListener will attempt to load beans from classpath:applicationContext.xml into the ApplicationContext."},
            { "value": "The deployment will fail if /WEB-INF/applicationContext.xml or /WEB-INF/dispatcher-servlet.xml does not exist.", "isCorrect": true},
            { "value": "Spring MVC will attempt to load beans from /WEB-INF/dispatcher-servlet.xml into the WebApplicationContext.", "isCorrect": true},
            { "value": "The deployment will succeed as long as /WEB-INF/applicationContext.xml or /WEB-INF/dispatcher-servlet.xml exists."},
            { "value": "Spring MVC will attempt to load beans from classpath:dispatcher-servlet.xml into the WebApplicationContext."}
        ],
        "explanation":"When using web.xml, unless you set the contextConfigLocation parameters, Spring MVC looks for applicationContext.xml and [servlet-name]-servlet.xml under WEB-INF. For this web.xml, if either file is missing, Spring will throw an exception, and the application will fail to deploy.",
        "hint": "There must be file(s) to load for the ApplicationContext and WebApplicationContext."
    }
  ],
  "questionGroup2":
  [
    { 
      "index": 1,
      "type": "matchItemsToDescription",
      "text": "Match the descriptions to the annotations.",
      "description": "Drag the description to the annotation",
      "options":
      [
        { "value": "Applied to a method to configure custom web data binding."},
        { "value": "An @Component stereotype applied to a class that can centralize @InitBinder, @ModelAttribute, and @ExceptionHandler annotated methods."},
        { "value": "Applied to methods meant to be invoked when the controller throws an exception."},
        { "value": "Binds a method parameter or method return value to a named model attribute."},
        { "value": "Applied to byte array method parameter for file upload."},
        { "value": "Maps placeholder in request path to method parameter."}
      ],
      "descriptions":
      [
        { "value": "@ControllerAdvice", "matchingIndex": 1},
        { "value": "@PathVariable", "matchingIndex": 5},
        { "value": "@ExceptionHandler", "matchingIndex": 2},
        { "value": "@InitBinder", "matchingIndex": 0},
        { "value": "@RequestPart", "matchingIndex": 4},
        { "value": "@ModelAttribute", "matchingIndex": 3}
      ]
    },
    {
      "index": 2,
      "type": "chooseMultiple",
      "text": "How is the @ResponseStatus annotation used?",
      "description": "Select all that apply",
      "options":
      [
        { "value": "Applied to a method to assign default HTTP status used in the method's response.", "isCorrect": true},
        { "value": "Applied to an Exception class to assign a default HTTP status used by the HandlerExceptionResolver.", "isCorrect": true},
        { "value": "Applied to method to map the method to an HTTP status code."},
        { "value": "Applied to an Exception class to override the default 500 status used for unhandled exceptions.", "isCorrect": true}
      ]
    }
  ],
  "questionGroup3":
  [
    {
        "index": 1,
        "type": "chooseOne",
        "text": "A flash attribute allows access to data attached to the model during the processing of a controller method to be passed to all remaining requests to that controller after a redirect.",
        "description": "Choose one",
        "options":
        [
            { "value": "True"},
            { "value": "False", "isCorrect": true}
        ],
        "explanation":"The data bound to a flash attribute is only available to the next controller method, and is then removed from the model. In order to share data between all requests, you would need to set an attribute on the request's session.",
        "hint": "The data is short lived."
    }
  ]
}
